<?xml version="1.0" encoding="UTF-8"?>
<svg width="101px" height="134px" viewBox="0 0 101 134" version="1.1" xmlns="http://www.w3.org/2000/svg" xmlns:xlink="http://www.w3.org/1999/xlink">
    <!-- Generator: Sketch 53 (72520) - https://sketchapp.com -->
    <title>Group 3</title>
    <desc>Created with Sketch.</desc>
    <g id="Page-1" stroke="none" stroke-width="1" fill="none" fill-rule="evenodd">
        <g id="Desktop-HD-Copy" transform="translate(-1018.000000, -359.000000)">
            <g id="Asset-2" transform="translate(95.000000, 139.000000)">
                <g id="Group-3" transform="translate(924.000000, 221.000000)">
                    <polygon id="Path" fill="#1A1A1A" points="0 0 99 66 0 132"></polygon>
                    <polygon id="Path" fill="#121227" points="0 0 99 66 0 132"></polygon>
                    <polygon id="Path-Copy" stroke="#695C9E" stroke-width="2" opacity="0.3" stroke-linecap="round" stroke-linejoin="round" points="0 0 99 66 0 132"></polygon>
                    <g class="cta-icon">
                      <polyline id="Path" stroke="#695C9E" stroke-width="4" stroke-linecap="round" points="52.31 60 59.65 66 52.31 72"></polyline>
                      <path d="M42.64,66 L56.02,66" id="Path" stroke="#695C9E" stroke-width="4" stroke-linecap="round"></path>
                      <polyline id="Path" stroke="#695C9E" stroke-width="4" stroke-linecap="round" points="30.31 76 37.65 82 30.31 88"></polyline>
                      <path d="M20.64,82 L34.02,82" id="Path" stroke="#695C9E" stroke-width="4" stroke-linecap="round"></path>
                      <polyline id="Path" stroke="#695C9E" stroke-width="4" stroke-linecap="round" points="30.31 44 37.65 50 30.31 56"></polyline>
                      <path d="M20.64,50 L34.02,50" id="Path" stroke="#695C9E" stroke-width="4" stroke-linecap="round"></path>
                    </g>
                </g>
            </g>
        </g>
    </g>
</svg>
